{
    "searchExpression": "(indexof(student/person/familyName, '${text}') ge 0) or (indexof(student/person/givenName, '${text}') ge 0) or (indexof(student/studentIdentifier, '${text}') ge 0)",
    "selectable": false,
    "smartSelect": false,
    "defaults": {
        "orderBy": "formattedGrade desc",
        "expand": "student($expand=studentStatus,studyProgram),status"
    },
    "multipleSelect": true,
    "columns": [
        {
            "name":"student/person/familyName",
            "property": "familyName",
            "title": "CoursesLocal.FullName",
            "formatter": "TemplateFormatter",
            "formatString": "${student.familyName} ${student.givenName}"
        },
        {
            "name": "student/person/fatherName",
            "property": "fatherName",
            "title": "Father Name",
            "formatter": "TemplateFormatter",
            "formatString": "${student.fatherName}"
        },
        {
            "name": "student/studentIdentifier",
            "property": "studentIdentifier",
            "title": "CoursesLocal.StudentIdentifier",
            "formatter": "TemplateFormatter",
            "formatString": "${student.studentIdentifier}"
        },
        {
            "name": "student/studyProgram",
            "property": "studyProgram",
            "title": "CoursesLocal.StudyProgram",
            "formatter": "TemplateFormatter",
            "formatString": "${student.studyProgram.abbreviation}"
        },
        {
            "name": "registrationSemester",
            "property": "registrationSemester",
            "title": "CoursesLocal.Semester"
        },
        {
            "name": "student/studentStatus",
            "property": "student",
            "title": "CoursesLocal.StudentStatus",
            "formatter": "TranslationFormatter",
            "formatString": "StudentStatuses.${value.studentStatus.alternateName || null}"
        },
        {
            "virtual": true,
            "property": "isPassed",
            "hidden": true
        },
        {
            "name": "formattedGrade",
            "property": "formattedGrade",
            "title": "CoursesLocal.Grade",
            "formatter": "NgClassFormatter",
            "formatOptions": {
                "ngClass": {
                    "text-success font-lg font-weight-bold": "${isPassed}===1  && ${formattedGrade != null}",
                    "text-danger font-lg font-weight-bold": "${isPassed}===0 && ${formattedGrade != null}"
                }
            }
        },
        {
            "name": "status",
            "property": "status",
            "title": "CoursesLocal.GradeStatusTitle",
            "formatters": [
                {
                    "formatter": "TranslationFormatter",
                    "formatString": "${'CoursesLocal.GradeStatus.' + (value && value.alternateName || '-')}"
                },
                {
                    "formatter": "NgClassFormatter",
                    "formatOptions": {
                        "ngClass": {
                            "text-danger": "'${status && status.alternateName}'==='failed'",
                            "text-primary": "'${status && status.alternateName}'==='pending'",
                            "text-success": "'${status && status.alternateName}'==='normal'"
                        }
                    }
                }
            ]
        }
    ],
    "searches": [],
    "paths": [],
    "criteria": [
        {
            "name": "studentIdentifier",
            "filter": "(indexof(student/studentIdentifier, '${value}') ge 0)",
            "type": "text"
        },
        {
            "name": "familyName",
            "filter": "(indexof(student/person/familyName, '${value}') ge 0)",
            "type": "text"
        },
        {
            "name": "studentStatus",
            "filter": "(student/studentStatus/alternateName eq '${value}')",
            "type": "text"
        },
        {
            "name": "formattedGrade",
            "filter": "(formattedGrade ${value ? 'ne null' : 'eq null'})",
            "type": "text"
        },
        {
            "name": "passed",
            "filter": "(isPassed eq ${value})",
            "type": "text"
        },
        {
            "name": "gradeStatus",
            "filter": "(status/alternateName eq '${value}')",
            "type": "text"
        }
    ]
}
